{
  "ua": "",
  "homeUrl": "http://www.1080kan.cc",
  "cateNode": "//ul[@class='navbar-items swiper-wrapper']/li/a[contains(@href,'vodtype')]",
  "cateName": "/@title",
  "cateId": "/@href",
  "cateIdR": "/vodtype/(\\d+).html",
  "cateManual": {},    
  "homeVodNode": "//a[@class='module-poster-item module-item']",
  "homeVodName": "/@title",
  "homeVodId": "/@href",
  "homeVodIdR": "/detail/(\\w+).html",
  "homeVodImg": "//div[@class='module-item-pic']/img/@data-original",
  "homeVodImgR": "",
  "homeVodMark": "/div/div/text()",
  "cateUrl": "http://www.1080kan.cc/show/{cateId}--------{catePg}---.html",
  "cateVodNode": "//a[@class='module-poster-item module-item']",
  "cateVodName": "/@title",
  "cateVodId": "/@href",
  "cateVodIdR": "/detail/(\\w+).html",
  "cateVodImg": "//div[@class='module-item-pic']/img/@data-original",
  "cateVodImgR": "",
  "cateVodMark": "/div/div/text()",
  "dtUrl": "http://www.1080kan.cc/detail/{vid}.html",
  "dtNode": "//div[@class='module-item-pic']/img",
  "dtName": "/@alt",
  "dtNameR": "",
  "dtImg": "/@data-original",
  "dtImgR": "",
  "dtFromNode": "//div[contains(@class,'module-tab-item tab-item')]/span",
  "dtFromName": "/text()",
  "dtFromNameR": "",
  "dtUrlNode": "//div[@class='module-play-list']",
  "dtUrlSubNode": "/div/a",
  "dtUrlId": "/@href",
  "dtUrlIdR": "",
  "dtUrlName": "/span/text()",
  "dtUrlNameR": "",
  "playUrl": "http://www.1080kan.cc{playUrl}",
  "playUa": "",
  "searchUrl": "http://www.1080kan.cc/index.php/ajax/suggest?mid=1&wd={wd}&limit=10",
  "scVodNode": "json:list",
  "scVodName": "name",
  "scVodId": "id",
  "scVodIdR": "",
  "scVodImg": "pic",
  "scVodMark": ""
}